sX, sY, dX, dY, B, R, =>, Rlat, Rlat-opt, WS, WE, stable, TootalWS, TootalWE, period, sustained-WS, sustained-WE
0, 0, 2, 3, 1, 0.040000, =>, 22, 12, 0, 5, True, 0, 29, Prd=25, 0.000, 4.000
1, 0, 1, 4, 1, 0.040000, =>, 26, 11, 3, 0, True, 27, 0, Prd=25, 2.000, 0.000
2, 0, 2, 1, 1, 0.040000, =>, 8, 3, 4, 0, True, 28, 0, Prd=25, 3.000, 0.000
3, 0, 3, 3, 1, 0.040000, =>, 20, 15, 2, 0, True, 26, 0, Prd=25, 1.000, 0.000
4, 0, 1, 0, 1, 0.040000, =>, 4, 4, 0, 4, True, 0, 28, Prd=25, 0.000, 3.000
0, 1, 4, 1, 1, 0.040000, =>, 6, 6, 0, 3, True, 0, 27, Prd=25, 0.000, 2.000
1, 1, 0, 0, 1, 0.040000, =>, 30, 25, 0, 3, True, 0, 27, Prd=25, 0.000, 2.000
2, 1, 4, 1, 1, 0.040000, =>, 4, 4, 0, 4, True, 0, 28, Prd=25, 0.000, 3.000
3, 1, 4, 2, 1, 0.040000, =>, 9, 4, 0, 5, True, 0, 29, Prd=25, 0.000, 4.000
4, 1, 4, 4, 1, 0.040000, =>, 20, 5, 4, 0, True, 28, 0, Prd=25, 3.000, 0.000
0, 2, 3, 2, 1, 0.040000, =>, 5, 5, 0, 5, True, 0, 29, Prd=25, 0.000, 4.000
1, 2, 0, 3, 1, 0.040000, =>, 12, 12, 0, 5, True, 0, 29, Prd=25, 0.000, 4.000
2, 2, 2, 1, 1, 0.040000, =>, 26, 21, 2, 0, True, 26, 0, Prd=25, 1.000, 0.000
3, 2, 3, 4, 1, 0.040000, =>, 14, 14, 3, 0, True, 27, 0, Prd=25, 2.000, 0.000
4, 2, 4, 3, 1, 0.040000, =>, 8, 3, 3, 0, True, 27, 0, Prd=25, 2.000, 0.000
0, 3, 3, 4, 1, 0.040000, =>, 11, 11, 0, 12, True, 0, 36, Prd=25, 0.000, 8.000
1, 3, 3, 0, 1, 0.040000, =>, 16, 11, 0, 12, True, 0, 36, Prd=25, 0.000, 8.000
2, 3, 3, 3, 1, 0.040000, =>, 3, 3, 0, 15, True, 0, 39, Prd=25, 0.000, 9.000
3, 3, 2, 3, 1, 0.040000, =>, 6, 6, 0, 15, True, 0, 39, Prd=25, 0.000, 9.000
4, 3, 0, 2, 1, 0.040000, =>, 27, 22, 0, 10, True, 0, 34, Prd=25, 0.000, 7.000
0, 4, 3, 4, 1, 0.040000, =>, 5, 5, 0, 15, True, 0, 39, Prd=25, 0.000, 10.000
1, 4, 2, 1, 1, 0.040000, =>, 15, 10, 0, 15, True, 0, 39, Prd=25, 0.000, 10.000
2, 4, 3, 4, 1, 0.040000, =>, 3, 3, 0, 15, True, 0, 39, Prd=25, 0.000, 10.000
3, 4, 1, 2, 1, 0.040000, =>, 23, 13, 0, 15, True, 0, 39, Prd=25, 0.000, 10.000
4, 4, 0, 4, 1, 0.040000, =>, 3, 3, 0, 12, True, 0, 36, Prd=25, 0.000, 8.000
